<?xml version="1.0" encoding="UTF-8" standalone="no"?>
<svg
   xmlns:dc="http://purl.org/dc/elements/1.1/"
   xmlns:cc="http://creativecommons.org/ns#"
   xmlns:rdf="http://www.w3.org/1999/02/22-rdf-syntax-ns#"
   xmlns:svg="http://www.w3.org/2000/svg"
   xmlns="http://www.w3.org/2000/svg"
   xmlns:sodipodi="http://sodipodi.sourceforge.net/DTD/sodipodi-0.dtd"
   xmlns:inkscape="http://www.inkscape.org/namespaces/inkscape"
   data-v-fde0c5aa=""
   viewBox="0 0 300 300"
   class="iconAbove"
   version="1.1"
   id="svg18"
   sodipodi:docname="favicon.svg"
   inkscape:version="1.0.1 (3bc2e813f5, 2020-09-07)">
  <metadata
     id="metadata22">
    <rdf:RDF>
      <cc:Work
         rdf:about="">
        <dc:format>image/svg+xml</dc:format>
        <dc:type
           rdf:resource="http://purl.org/dc/dcmitype/StillImage" />
      </cc:Work>
    </rdf:RDF>
  </metadata>
  <sodipodi:namedview
     pagecolor="#ffffff"
     bordercolor="#666666"
     borderopacity="1"
     objecttolerance="10"
     gridtolerance="10"
     guidetolerance="10"
     inkscape:pageopacity="0"
     inkscape:pageshadow="2"
     inkscape:window-width="956"
     inkscape:window-height="1041"
     id="namedview20"
     showgrid="false"
     inkscape:zoom="0.86620581"
     inkscape:cx="180.22708"
     inkscape:cy="192.64261"
     inkscape:window-x="0"
     inkscape:window-y="37"
     inkscape:window-maximized="0"
     inkscape:current-layer="svg18"
     inkscape:document-rotation="0" />
  <!---->
  <defs
     data-v-fde0c5aa=""
     id="defs2">
    <!---->
  </defs>
  <rect
     data-v-fde0c5aa=""
     fill="#f3eea8"
     x="0"
     y="0"
     width="300"
     height="300"
     class="logo-background-square"
     id="rect4"
     style="stroke-width:1" />
  <defs
     data-v-fde0c5aa=""
     id="defs6">
    <!---->
  </defs>
  <defs
     data-v-fde0c5aa=""
     id="defs11">
    <!---->
  </defs>
  <g
     data-v-fde0c5aa=""
     id="69d3071f-d543-44f2-8f59-52c9a11420f9"
     stroke="none"
     fill="#933547"
     transform="matrix(3.0327786,0,0,3.0327786,-1.6389288,8.1593111)">
    <path
       d="M 95,8.539 53,22.986 V 73.27 c -1.832,-0.864 -4.27,-1.001 -6.694,-0.193 -4.192,1.397 -6.74,5.078 -5.692,8.222 1.048,3.144 5.295,4.559 9.487,3.162 3.742,-1.247 6.166,-4.314 5.899,-7.195 V 32 L 92,19.603 v 32.681 c -1.835,-0.876 -4.286,-1.019 -6.722,-0.207 -4.192,1.397 -6.74,5.078 -5.692,8.222 1.048,3.144 5.295,4.559 9.487,3.162 3.525,-1.175 5.878,-3.965 5.918,-6.692 H 95 Z M 19,9 v 43 c -1.869,-0.892 -4.481,-0.971 -6.963,-0.143 -4.269,1.423 -6.865,5.172 -5.798,8.374 1.067,3.202 5.393,4.644 9.663,3.221 3.59,-1.197 6.047,-4.038 6.087,-6.816 H 22 V 23 c 0,0 12.926,3.741 17,18 C 39,24.704 25,22 19,9 Z M 37.423,79 H 2 v 2 h 35.476 a 7.751,7.751 0 0 1 -0.053,-2 z"
       id="path13" />
    <path
       d="M 98,81 V 79 H 58.9 a 8.662,8.662 0 0 1 -0.591,2 z M 5.078,64 H 2 v 2 H 7.87 A 8.874,8.874 0 0 1 5.078,64 Z M 98,66 v -2 h -3.769 a 13.016,13.016 0 0 1 -3.377,2 z M 78.401,64 H 59 v 2 H 81.155 A 8.74,8.74 0 0 1 78.401,64 Z M 21.09,64 a 13.4,13.4 0 0 1 -3.433,2 H 50 V 64 Z M 25,49 h 25 v 2 H 25 Z M 11.125,49 H 2 v 2 h 5.25 a 13.625,13.625 0 0 1 3.839,-1.99 z M 59,51 h 21.822 a 13.5,13.5 0 0 1 3.507,-1.769 c 0.264,-0.088 0.53,-0.16 0.796,-0.231 H 59 Z M 32.25,34 H 25 v 2 h 8.595 A 22.994,22.994 0 0 0 32.25,34 Z M 2,34 h 14 v 2 H 2 Z m 57,2 H 89 V 34 H 59.406 L 59,34.14 Z M 41.551,36 H 50 v -2 h -8.898 c 0.175,0.642 0.323,1.311 0.449,2 z M 32.734,21 h 18.028 a 2.991,2.991 0 0 1 1.263,-0.851 L 55.366,19 h -24.68 l 0.011,0.011 c 0.68,0.657 1.362,1.317 2.037,1.989 z M 2,19 h 14 v 2 H 2 Z"
       id="path15" />
  </g>
  <!---->
</svg>
